<svg width="16" height="16" viewBox="0 0 16 16" fill="none" xmlns="http://www.w3.org/2000/svg">
<path d="M7.99967 2V6C7.99967 6.36819 8.29815 6.66667 8.66634 6.66667H12.6663L11.9997 6H8.66634V2.66667L7.99967 2Z" fill="#BAC1D4"/>
<path d="M7.99967 2H3.99967C3.63148 2 3.33301 2.29848 3.33301 2.66667V13.3333C3.33301 13.7015 3.63148 14 3.99967 14H11.9997C12.3679 14 12.6663 13.7015 12.6663 13.3333V6.66667L11.9997 6V13.3333H3.99967V2.66667H8.66634L7.99967 2Z" fill="#BAC1D4"/>
<path d="M12.6663 5.72386L8.94248 2H7.99967L12.6663 6.66667V5.72386Z" fill="#BAC1D4"/>
</svg>
