<svg width="16" height="16" viewBox="0 0 16 16" fill="none" xmlns="http://www.w3.org/2000/svg">
<circle cx="8" cy="8" r="8" fill="#E3E4E7"/>
<path fill-rule="evenodd" clip-rule="evenodd" d="M4.81832 5.18204C5.01358 4.98678 5.33017 4.98678 5.52543 5.18204L11.1823 10.8389C11.3775 11.0342 11.3775 11.3507 11.1823 11.546C10.987 11.7413 10.6704 11.7413 10.4752 11.546L4.81832 5.88915C4.62306 5.69389 4.62306 5.37731 4.81832 5.18204Z" fill="white"/>
<path fill-rule="evenodd" clip-rule="evenodd" d="M11.1816 5.18209C11.3769 5.37735 11.3769 5.69394 11.1816 5.8892L5.52475 11.5461C5.32949 11.7413 5.0129 11.7413 4.81764 11.5461C4.62238 11.3508 4.62238 11.0342 4.81764 10.8389L10.4745 5.18209C10.6698 4.98683 10.9863 4.98683 11.1816 5.18209Z" fill="white"/>
</svg>
